<?xml version="1.0" encoding="utf-8"?>
<!-- Generator: Adobe Illustrator 15.0.0, SVG Export Plug-In . SVG Version: 6.00 Build 0)  -->
<!DOCTYPE svg PUBLIC "-//W3C//DTD SVG 1.1 Tiny//EN" "http://www.w3.org/Graphics/SVG/1.1/DTD/svg11-tiny.dtd">
<svg version="1.1" baseProfile="tiny" id="Layer_1" xmlns="http://www.w3.org/2000/svg" xmlns:xlink="http://www.w3.org/1999/xlink"
	 x="0px" y="0px" width="96px" height="64px" viewBox="0 0 96 64" overflow="inherit" xml:space="preserve">
<g id="XMLID_1_">
	<g>
		<path fill="#FFFFFF" d="M68.19,32.001c0,10.676-8.51,19.259-19.778,19.259H28.634V12.742c9.203,0,15.066,0,17.575,0
			c1.386,0,2.065,0,2.412,0c0.166,0,0.263,0,0.305,0c0.028,0,0.028,0,0.042,0C60.222,12.742,68.19,21.326,68.19,32.001z"/>
		<path d="M48.413,51.261c11.268,0,19.778-8.583,19.778-19.259c0-10.675-7.969-19.259-19.224-19.259c-0.014,0-0.014,0-0.042,0
			c-0.042,0-0.139,0-0.305,0c-0.347,0-1.026,0-2.412,0c-2.509,0-8.372,0-17.575,0v38.519H48.413z M48.967,9.53
			c13.001,0,23.077,10.109,23.077,22.471c0,12.363-10.076,22.472-23.077,22.472H26.985h-1.649v-1.606V11.136V9.53h1.649
			C48.967,9.53,48.967,9.53,48.967,9.53z"/>
	</g>
	<g>
	</g>
</g>
<path id="Output" sodipodi:nodetypes="cc" fill="none" stroke="#000000" stroke-linecap="round" stroke-linejoin="round" d="
	M71.489,32C75.127,32,96,32,96,32"/>
<path id="Input1" fill="none" stroke="#000000" stroke-linecap="round" stroke-linejoin="round" d="M26.486,20.758H0"/>
<path id="Input0" fill="none" stroke="#000000" stroke-linecap="round" stroke-linejoin="round" d="M27.637,43.243H0"/>
<circle fill="#FFFFFF" stroke="#000000" stroke-width="2.2354" stroke-miterlimit="10" cx="73.796" cy="32.001" r="5.606"/>
</svg>
