<?xml version="1.0" encoding="utf-8"?>
<!-- Generator: Adobe Illustrator 15.0.0, SVG Export Plug-In . SVG Version: 6.00 Build 0)  -->
<!DOCTYPE svg PUBLIC "-//W3C//DTD SVG 1.1 Tiny//EN" "http://www.w3.org/Graphics/SVG/1.1/DTD/svg11-tiny.dtd">
<svg version="1.1" baseProfile="tiny" id="Layer_1" xmlns="http://www.w3.org/2000/svg" xmlns:xlink="http://www.w3.org/1999/xlink"
	 x="0px" y="0px" width="96px" height="64px" viewBox="0 0 96 64" overflow="inherit" xml:space="preserve">
<g id="XMLID_2_">
	<g>
		<path d="M74.202,31.176l-1.479,0.799l1.479,0.799C68.421,43.471,61.006,48.98,54.34,51.718
			c-6.649,2.722-12.583,2.704-15.271,2.704H23.356h-3.537l2.245-2.737c0,0,6.343-7.856,6.343-19.709s-6.343-19.709-6.343-19.709
			l-2.245-2.738h3.537h15.713C44.392,9.528,62.639,9.783,74.202,31.176z M52.81,48.589c5.833-2.381,12.295-7.159,17.635-16.614
			C59.578,12.759,44.324,12.895,39.069,12.895H26.4c2.108,3.486,5.374,10.135,5.374,19.081c0,8.927-3.231,15.594-5.34,19.08h12.635
			C41.756,51.055,46.79,51.055,52.81,48.589z"/>
		<path fill="#FFFFFF" d="M70.444,31.975c-5.34,9.455-11.802,14.233-17.635,16.614c-6.02,2.466-11.053,2.466-13.74,2.466H26.434
			c2.109-3.485,5.34-10.152,5.34-19.08c0-8.945-3.265-15.594-5.374-19.081h12.669C44.324,12.895,59.578,12.759,70.444,31.975z"/>
	</g>
	<g>
	</g>
</g>
<path id="output" sodipodi:nodetypes="cc" fill="none" stroke="#000000" stroke-linecap="round" stroke-linejoin="round" d="
	M71.329,31.975c7.006,0,24.671,0,24.671,0"/>
<path id="input1" fill="none" stroke="#000000" stroke-linecap="round" stroke-linejoin="round" d="M27.557,20.751H0"/>
<path id="input0" fill="none" stroke="#000000" stroke-linecap="round" stroke-linejoin="round" d="M28.679,43.198H0"/>
<path fill="none" stroke="#000000" stroke-width="2" stroke-linecap="round" stroke-linejoin="round" d="M15.525,9.527l2.245,2.738
	c0,0,6.342,7.856,6.342,19.709c0,11.854-6.342,19.709-6.342,19.709l-2.245,2.738"/>
</svg>
